<svg width="24" height="24" viewBox="0 0 24 24" fill="none" xmlns="http://www.w3.org/2000/svg">
<path d="M16.317 3.92285C17.625 3.92285 18.7327 4.42418 19.64 5.42685C20.5473 6.42952 21.0007 7.63952 21 9.05685C21 9.47285 20.9547 9.88752 20.864 10.3009C20.7733 10.7142 20.6283 11.1139 20.429 11.4999H15.256L13.466 8.71985H12.531L10.854 13.8459L9.256 11.4999H3.57C3.37133 11.1139 3.22633 10.7172 3.135 10.3099C3.045 9.90318 3 9.49418 3 9.08285C3 7.64752 3.44933 6.42885 4.348 5.42685C5.24667 4.42485 6.35 3.92352 7.658 3.92285C8.342 3.92285 9 4.06218 9.632 4.34085C10.2633 4.61885 10.8283 5.02185 11.327 5.54985L12 6.26185L12.635 5.58885C13.1423 5.04752 13.715 4.63452 14.353 4.34985C14.991 4.06518 15.6457 3.92285 16.317 3.92285ZM11.975 20.5269L4.796 13.2979C4.67067 13.1725 4.55 13.0435 4.434 12.9109C4.31867 12.7795 4.213 12.6425 4.117 12.4999H8.72L10.56 15.2669H11.49L13.147 10.1159L14.739 12.4999H19.878C19.782 12.6385 19.6763 12.7739 19.561 12.9059C19.4457 13.0379 19.327 13.1665 19.205 13.2919L11.975 20.5269Z" fill="black"/>
</svg>
